…
Packages

library(gsheet)
library(tidyverse)
library(broom)
library(dplyr)
library(tidyr)

Import Data

df = gsheet2tbl("https://docs.google.com/spreadsheets/d/1JAEAXsmb928CsyCzRbfTP2ilruEof2Qkr_zWUfaknOc/edit?gid=0#gid=0")

df

# A tibble: 3,708 × 28
   Ensaio ensaio_1 pesquisador     ano n_aplicacao cultivar cultivo bioma
    <dbl>    <dbl> <chr>         <dbl>       <dbl> <chr>    <chr>   <chr>
 1      2        1 Marina Senger  2024          NA <NA>     <NA>    <NA> 
 2      2        1 Marina Senger  2024          NA <NA>     <NA>    <NA> 
 3      2        1 Marina Senger  2024          NA <NA>     <NA>    <NA> 
 4      2        1 Marina Senger  2024          NA <NA>     <NA>    <NA> 
 5      2        1 Marina Senger  2024          NA <NA>     <NA>    <NA> 
 6      2        1 Marina Senger  2024          NA <NA>     <NA>    <NA> 
 7      2        1 Marina Senger  2024          NA <NA>     <NA>    <NA> 
 8      2        1 Marina Senger  2024          NA <NA>     <NA>    <NA> 
 9      2        1 Marina Senger  2024          NA <NA>     <NA>    <NA> 
10      2        1 Marina Senger  2024          NA <NA>     <NA>    <NA> 
# ℹ 3,698 more rows
# ℹ 20 more variables: municipio <chr>, regiao <chr>, estado <chr>,
#   macrorregiao <chr>, mesorregiao <chr>, microrregiao <chr>,
#   instituicao <chr>, `dose/ha` <chr>, registro <chr>, numero_registro <chr>,
#   `concentração ia. no produto(%)` <chr>, codigo_frac <chr>, empresa <chr>,
#   bloco <dbl>, produto <chr>, adjuvante <chr>, trat <dbl>, sev <dbl>,
#   aacpd <dbl>, prod <dbl>
…
