…
med_sev <- med_sev %>%
  group_by(ensaio_1) %>% 
  mutate(n2 = n()) %>% 
  filter(n2 != 1)

design1 = med_sev %>% 
  group_by(ensaio_1) %>% 
  filter(produto  %in% c("AACHECK", "ABACUS HC (Controle Positivo)", "BELYAN  (Controle Positivo)", "FOX XPRO", "OSKESTRA SC", "PREVINIL", "trat_A20259")) %>% 
  mutate(n3 = n()) %>% 
  mutate(design = rep(1, length(produto))) %>% 
  filter(n2 == 7) %>% 
  filter(n3 == 7)
design1

# A tibble: 28 × 14
# Groups:   ensaio_1 [4]
   municipio regiao ensaio_1 produto   ano mean_sev mean_V     n log_sev  vi_sev
   <chr>     <chr>  <fct>    <fct>   <dbl>    <dbl>  <dbl> <int>   <dbl>   <dbl>
 1 Cafelând… Sul    22       AACHECK  2018    21.7   9.01      4   3.08  0.00478
 2 Cafelând… Sul    22       ABACUS…  2018    10.9   9.01      4   2.39  0.0191 
 3 Cafelând… Sul    22       BELYAN…  2018     5.82  9.01      4   1.76  0.0664 
 4 Cafelând… Sul    22       FOX XP…  2018     9.6   9.01      4   2.26  0.0244 
 5 Cafelând… Sul    22       OSKEST…  2018     8.85  9.01      4   2.18  0.0288 
 6 Cafelând… Sul    22       PREVIN…  2018     9.12  9.01      4   2.21  0.0271 
 7 Cafelând… Sul    22       trat_A…  2018     8.2   9.01      4   2.10  0.0335 
 8 Cafelând… Sul    23       AACHECK  2018     5.65  0.178     4   1.73  0.00140
 9 Cafelând… Sul    23       ABACUS…  2018     1.62  0.178     4   0.486 0.0169 
10 Cafelând… Sul    23       BELYAN…  2018     0.7   0.178     4  -0.357 0.0910 
# ℹ 18 more rows
# ℹ 4 more variables: sev_check_class <chr>, n2 <int>, n3 <int>, design <dbl>

#D2 #conferido

design2 = med_sev %>% 
  group_by(ensaio_1) %>% 
  filter(produto  %in% c("AACHECK", "ABACUS HC (Controle Positivo)", "BELYAN  (Controle Positivo)", "FOX XPRO", "OSKESTRA SC", "TRIDIUM", "trat_A20259")) %>% 
  mutate(n3 = n()) %>% 
  mutate(design = rep(2, length(produto))) %>% 
  filter(n2 == 7) %>% 
  filter(n3 == 7)
design2

# A tibble: 112 × 14
# Groups:   ensaio_1 [16]
   municipio regiao ensaio_1 produto   ano mean_sev mean_V     n log_sev  vi_sev
   <chr>     <chr>  <fct>    <fct>   <dbl>    <dbl>  <dbl> <int>   <dbl>   <dbl>
 1 Anápolis  Centr… 48       AACHECK  2020   33.4   2.73       4  3.51   6.14e-4
 2 Anápolis  Centr… 48       ABACUS…  2020   12.4   2.73       4  2.51   4.48e-3
 3 Anápolis  Centr… 48       BELYAN…  2020   12.1   2.73       4  2.49   4.66e-3
 4 Anápolis  Centr… 48       FOX XP…  2020   11.4   2.73       4  2.43   5.30e-3
 5 Anápolis  Centr… 48       OSKEST…  2020   11.1   2.73       4  2.41   5.54e-3
 6 Anápolis  Centr… 48       trat_A…  2020   11.8   2.73       4  2.47   4.86e-3
 7 Anápolis  Centr… 48       TRIDIUM  2020   14.1   2.73       4  2.65   3.43e-3
 8 Arapongas Sul    27       AACHECK  2019    4.95  0.0929     4  1.60   9.47e-4
 9 Arapongas Sul    27       ABACUS…  2019    0.975 0.0929     4 -0.0253 2.44e-2
10 Arapongas Sul    27       BELYAN…  2019    0.45  0.0929     4 -0.799  1.15e-1
# ℹ 102 more rows
# ℹ 4 more variables: sev_check_class <chr>, n2 <int>, n3 <int>, design <dbl>

#D3 #conferido

design3 = med_sev %>% 
  group_by(ensaio_1) %>% 
  filter(produto  %in% c("AACHECK", "ABACUS HC (Controle Positivo)", "FOX XPRO", "OSKESTRA SC", "PREVINIL","TRIDIUM", "UNIZEB GOLD (Controle Positivo, multissítio)")) %>% 
  mutate(n3 = n()) %>% 
  mutate(design = rep(3, length(produto))) %>% 
  filter(n2 == 7) %>% 
  filter(n3 == 7)
design3

# A tibble: 63 × 14
# Groups:   ensaio_1 [9]
   municipio regiao ensaio_1 produto   ano mean_sev mean_V     n log_sev  vi_sev
   <chr>     <chr>  <fct>    <fct>   <dbl>    <dbl>  <dbl> <int>   <dbl>   <dbl>
 1 Cafelând… Sul    66       AACHECK  2023    13.4    3.54     4   2.59  4.97e-3
 2 Cafelând… Sul    66       ABACUS…  2023     3.85   3.54     4   1.35  5.98e-2
 3 Cafelând… Sul    66       FOX XP…  2023     5.1    3.54     4   1.63  3.41e-2
 4 Cafelând… Sul    66       OSKEST…  2023     3.1    3.54     4   1.13  9.22e-2
 5 Cafelând… Sul    66       PREVIN…  2023     4.1    3.54     4   1.41  5.27e-2
 6 Cafelând… Sul    66       TRIDIUM  2023     4.1    3.54     4   1.41  5.27e-2
 7 Cafelând… Sul    66       UNIZEB…  2023     2.6    3.54     4   0.956 1.31e-1
 8 Campo Mo… Sul    65       AACHECK  2023    40.5    2.93     4   3.70  4.47e-4
 9 Campo Mo… Sul    65       ABACUS…  2023    10.1    2.93     4   2.31  7.18e-3
10 Campo Mo… Sul    65       FOX XP…  2023    11.6    2.93     4   2.45  5.47e-3
# ℹ 53 more rows
# ℹ 4 more variables: sev_check_class <chr>, n2 <int>, n3 <int>, design <dbl>

#D4 #conferido

design4 = med_sev %>% 
  group_by(ensaio_1) %>% 
  filter(produto  %in% c("AACHECK", "ABACUS HC (Controle Positivo)", "FOX XPRO", "PREVINIL","TRIDIUM", "UNIZEB GOLD (Controle Positivo, multissítio)")) %>% 
  mutate(n3 = n()) %>% 
  mutate(design = rep(4, length(produto))) %>% 
  filter(n2 == 6) %>% 
  filter(n3 == 6)
design4

# A tibble: 30 × 14
# Groups:   ensaio_1 [5]
   municipio regiao ensaio_1 produto   ano mean_sev mean_V     n log_sev  vi_sev
   <chr>     <chr>  <fct>    <fct>   <dbl>    <dbl>  <dbl> <int>   <dbl>   <dbl>
 1 Guarapua… Sul    73       AACHECK  2024    17.6    11.9     4    2.87 0.00962
 2 Guarapua… Sul    73       ABACUS…  2024     5.38   11.9     4    1.68 0.103  
 3 Guarapua… Sul    73       FOX XP…  2024     3.12   11.9     4    1.14 0.305  
 4 Guarapua… Sul    73       PREVIN…  2024     6.62   11.9     4    1.89 0.0679 
 5 Guarapua… Sul    73       TRIDIUM  2024     6.5    11.9     4    1.87 0.0706 
 6 Guarapua… Sul    73       UNIZEB…  2024     7.62   11.9     4    2.03 0.0513 
 7 Lavras    Sudes… 75       AACHECK  2024    10.1    17.9     4    2.31 0.0439 
 8 Lavras    Sudes… 75       ABACUS…  2024    10.1    17.9     4    2.31 0.0439 
 9 Lavras    Sudes… 75       FOX XP…  2024     5.1    17.9     4    1.63 0.172  
10 Lavras    Sudes… 75       PREVIN…  2024     7.6    17.9     4    2.03 0.0775 
# ℹ 20 more rows
# ℹ 4 more variables: sev_check_class <chr>, n2 <int>, n3 <int>, design <dbl>

#D5 conferido

design5 = med_sev %>% 
  group_by(ensaio_1) %>% 
  filter(produto  %in% c("AACHECK", "ABACUS HC (Controle Positivo)","BELYAN  (Controle Positivo)", "OSKESTRA SC", "PREVINIL","TRIDIUM", "UNIZEB GOLD (Controle Positivo, multissítio)")) %>% 
  mutate(n3 = n()) %>% 
  mutate(design = rep(5, length(produto))) %>% 
  filter(n2 == 7) %>% 
  filter(n3 == 7)
design5

# A tibble: 56 × 14
# Groups:   ensaio_1 [8]
   municipio regiao ensaio_1 produto   ano mean_sev mean_V     n log_sev  vi_sev
   <chr>     <chr>  <fct>    <fct>   <dbl>    <dbl>  <dbl> <int>   <dbl>   <dbl>
 1 Cafelând… Sul    58       AACHECK  2022    26.4    1.79     4    3.27 6.44e-4
 2 Cafelând… Sul    58       ABACUS…  2022    13.4    1.79     4    2.59 2.51e-3
 3 Cafelând… Sul    58       BELYAN…  2022     7.6    1.79     4    2.03 7.75e-3
 4 Cafelând… Sul    58       OSKEST…  2022     8.85   1.79     4    2.18 5.71e-3
 5 Cafelând… Sul    58       PREVIN…  2022    12.6    1.79     4    2.53 2.82e-3
 6 Cafelând… Sul    58       TRIDIUM  2022    12.4    1.79     4    2.51 2.93e-3
 7 Cafelând… Sul    58       UNIZEB…  2022    12.8    1.79     4    2.55 2.71e-3
 8 Campo Mo… Sul    57       AACHECK  2022    18.6   16.6      4    2.92 1.21e-2
 9 Campo Mo… Sul    57       ABACUS…  2022    14.5   16.6      4    2.68 1.97e-2
10 Campo Mo… Sul    57       BELYAN…  2022    16.4   16.6      4    2.80 1.54e-2
# ℹ 46 more rows
# ℹ 4 more variables: sev_check_class <chr>, n2 <int>, n3 <int>, design <dbl>

#D6 #conferido

design6 = med_sev %>% 
  group_by(ensaio_1) %>% 
  filter(produto  %in% c("AACHECK", "ABACUS HC (Controle Positivo)", "OSKESTRA SC", "UNIZEB GOLD (Controle Positivo, multissítio)")) %>% 
  mutate(n3 = n()) %>% 
  mutate(design = rep(6, length(produto))) %>% 
  filter(n2 == 4) %>% 
  filter(n3 == 4)
design6

# A tibble: 32 × 14
# Groups:   ensaio_1 [8]
   municipio regiao ensaio_1 produto   ano mean_sev mean_V     n log_sev  vi_sev
   <chr>     <chr>  <fct>    <fct>   <dbl>    <dbl>  <dbl> <int>   <dbl>   <dbl>
 1 Campo Mo… Sul    82       AACHECK  2017     30.1  26.9      3    3.40 0.00988
 2 Campo Mo… Sul    82       ABACUS…  2017     20.1  26.9      3    3.00 0.0222 
 3 Campo Mo… Sul    82       OSKEST…  2017     17.8  26.9      3    2.88 0.0284 
 4 Campo Mo… Sul    82       UNIZEB…  2017     26.8  26.9      3    3.29 0.0125 
 5 Campo Mo… Sul    83       AACHECK  2017     30.4   8.67     3    3.42 0.00312
 6 Campo Mo… Sul    83       ABACUS…  2017     10.1   8.67     3    2.31 0.0283 
 7 Campo Mo… Sul    83       OSKEST…  2017      8.1   8.67     3    2.09 0.0440 
 8 Campo Mo… Sul    83       UNIZEB…  2017     19.1   8.67     3    2.95 0.00792
 9 Campo Mo… Sul    86       AACHECK  2016     25.1   6.25     3    3.22 0.00331
10 Campo Mo… Sul    86       ABACUS…  2016      4.1   6.25     3    1.41 0.124  
# ℹ 22 more rows
# ℹ 4 more variables: sev_check_class <chr>, n2 <int>, n3 <int>, design <dbl>

#D7 #Conferido

design7 = med_sev %>% 
  group_by(ensaio_1) %>% 
  filter(produto  %in% c("AACHECK", "PREVINIL", "UNIZEB GOLD (Controle Positivo, multissítio)")) %>% 
  mutate(n3 = n()) %>% 
  mutate(design = rep(7, length(produto))) %>% 
  filter(n2 == 3) %>% 
  filter(n3 == 3)
design7

# A tibble: 24 × 14
# Groups:   ensaio_1 [8]
   municipio regiao ensaio_1 produto   ano mean_sev mean_V     n log_sev  vi_sev
   <chr>     <chr>  <fct>    <fct>   <dbl>    <dbl>  <dbl> <int>   <dbl>   <dbl>
 1 Arapongas Sul    6        AACHECK  2021    3.72   0.498     4   1.32  0.00897
 2 Arapongas Sul    6        PREVIN…  2021    0.425  0.498     4  -0.856 0.689  
 3 Arapongas Sul    6        UNIZEB…  2021    0.225  0.498     4  -1.49  2.46   
 4 Bandeira… Centr… 9        AACHECK  2021    6.6    1.48      4   1.89  0.00852
 5 Bandeira… Centr… 9        PREVIN…  2021    0.5    1.48      4  -0.693 1.48   
 6 Bandeira… Centr… 9        UNIZEB…  2021    0.725  1.48      4  -0.322 0.706  
 7 Bandeira… Sul    7        AACHECK  2021   31.4   40.6       4   3.45  0.0103 
 8 Bandeira… Sul    7        PREVIN…  2021   14.1   40.6       4   2.65  0.0511 
 9 Bandeira… Sul    7        UNIZEB…  2021   12.1   40.6       4   2.49  0.0694 
10 Capão Bo… Sudes… 8        AACHECK  2021   20.0    5.18      4   3.00  0.00323
# ℹ 14 more rows
# ℹ 4 more variables: sev_check_class <chr>, n2 <int>, n3 <int>, design <dbl>
…
#D9 #Conferido

design9 = med_sev %>% 
  group_by(ensaio_1) %>% 
  filter(produto  %in% c('AACHECK', 'ABACUS HC (Controle Positivo)','FOX XPRO', 'OSKESTRA SC','trat_A20259', 'TRIDIUM'))%>%
  mutate(n3 = n()) %>% 
  mutate(design = rep(9, length(produto))) %>% 
  filter(n2 == 6) %>% 
  filter(n3 == 6)
design9

# A tibble: 90 × 14
# Groups:   ensaio_1 [15]
   municipio regiao ensaio_1 produto   ano mean_sev mean_V     n log_sev  vi_sev
   <chr>     <chr>  <fct>    <fct>   <dbl>    <dbl>  <dbl> <int>   <dbl>   <dbl>
 1 Araponga… Sul    41       AACHECK  2020   22.8   4.53       4   3.13  0.00218
 2 Araponga… Sul    41       ABACUS…  2020    1.98  4.53       4   0.681 0.290  
 3 Araponga… Sul    41       FOX XP…  2020    1.42  4.53       4   0.354 0.558  
 4 Araponga… Sul    41       OSKEST…  2020    2.58  4.53       4   0.946 0.171  
 5 Araponga… Sul    41       trat_A…  2020    2.62  4.53       4   0.965 0.164  
 6 Araponga… Sul    41       TRIDIUM  2020    2.72  4.53       4   1.00  0.153  
 7 Assaí     Sul    34       AACHECK  2019    0.85  0.0168     4  -0.163 0.00581
 8 Assaí     Sul    34       ABACUS…  2019    0.725 0.0168     4  -0.322 0.00798
 9 Assaí     Sul    34       FOX XP…  2019    0.55  0.0168     4  -0.598 0.0139 
10 Assaí     Sul    34       OSKEST…  2019    0.6   0.0168     4  -0.511 0.0117 
# ℹ 80 more rows
# ℹ 4 more variables: sev_check_class <chr>, n2 <int>, n3 <int>, design <dbl>
…
